FID	IID	Height
2	427	1.5748
2	448	1.778
11	615	1.5748
11	616	1.7272
24	887	1.8796000000000002
24	3151	1.6891
26	879	1.7272
26	880	1.8034
39	1336	1.7399
39	3268	1.6764000000000001
50	1130	1.5875
50	1131	1.6764000000000001
57	1235	1.7272
57	1236	1.5748
60	1261	1.524
60	1262	1.8034
82	1512	1.7272
82	3707	1.651
84	1520	1.7526
84	3540	1.6383
101	2316	1.7399
101	2317	1.6637
130	4865	1.82245
130	4866	1.6256
132	2001	1.778
132	2002	1.651
140	2111	1.6002
140	2121	1.7145000000000001
150	2201	1.7526
150	2203	1.53035
153	2241	1.6002
153	2252	1.524
154	2215	
154	2216	1.8288000000000002
155	2231	1.6002
155	2232	1.778
157	2269	1.55575
157	2270	1.6891
164	2414	1.7018
164	2431	1.651
169	2613	1.7272
169	2614	1.5494
173	2797	1.7907
173	2798	1.6002
174	2843	1.7907
174	2844	1.5621
178	3032	1.7526
178	3033	1.7272
184	3127	1.7018
184	3130	1.8669000000000002
185	2862	1.8288000000000002
185	2863	1.6383
191	3189	1.7653
191	3275	1.6891
192	3197	1.7526
192	3198	1.6256
203	3385	1.7526
203	3386	1.5748
212	3679	1.6764000000000001
212	3860	1.7272
220	3527	1.6129
220	3528	1.8288000000000002
222	4111	1.5176500000000002
222	4295	1.6256
226	4206	1.61925
226	4207	1.8161
232	4475	1.7145000000000001
232	4476	1.6891
243	4593	1.61925
243	4594	1.8542000000000003
254	5116	1.6891
254	5117	1.778
256	4233	1.6256
256	4234	1.7526
258	5255	1.7018
258	5256	1.8034
269	5781	1.8542000000000003
269	5782	1.7272
273	5642	1.6002
273	5673	1.7272
278	5995	1.8669000000000002
278	5996	1.6256
279	5806	1.8288000000000002
279	5807	1.6383
285	6039	1.7272
285	6040	1.778
286	6098	1.4986000000000002
286	6099	1.7018
291	6162	1.6764000000000001
291	6163	1.8034
294	6116	1.6764000000000001
294	6782	1.6891
296	6222	1.778
296	6223	1.6002
298	6219	1.5113
298	6220	1.8288000000000002
300	6504	1.9050000000000002
300	6505	1.651
304	6721	1.651
304	6922	1.524
306	6716	1.7526
306	6717	1.6129
307	6708	1.7526
307	6730	1.8669000000000002
311	6614	1.651
311	6615	1.6256
313	6679	1.8796000000000002
313	6680	1.55575
323	7108	1.8161
323	7109	1.6764000000000001
326	6835	1.5748
326	6836	1.7526
328	6809	1.8288000000000002
328	6810	1.7526
331	7191	1.7018
331	7274	1.8034
332	7173	1.7018
332	7174	1.5748
340	7106	1.7272
340	7107	1.8542000000000003
343	7341	1.5684500000000001
343	7342	1.8542000000000003
349	7476	
349	7479	1.6256
352	7538	1.7272
352	7539	1.8161
3005	2537	1.778
3005	2538	1.6002
3007	2604	1.6256
3007	2605	1.8288000000000002
3014	3003	1.6954500000000001
3014	3004	1.6764000000000001
3022	3208	1.778
3022	3209	1.6383
3023	3244	1.6891
3023	3245	1.5684500000000001
3026	3407	1.8796000000000002
3026	3408	1.5748
3027	3394	1.5875
3027	3395	1.6637
3030	3689	1.7526
3030	3690	1.6764000000000001
3037	4136	1.8034
3037	4137	1.6637
3041	3752	1.6256
3041	3753	1.778
3043	3922	1.6129
3043	3923	1.8288000000000002
3045	3722	1.778
3045	3723	1.7018
3049	4318	1.5621
3049	4319	1.8288000000000002
3050	4152	1.8034
3050	4153	1.6256
3063	5026	1.82245
3063	5027	1.6129
3074	4924	1.7907
3074	4925	1.7018
3076	5033	1.8288000000000002
3076	5034	1.63195
3078	5052	1.5748
3078	5053	1.778
3079	5270	1.6129
3079	5271	1.6764000000000001
3086	5282	1.8161
3086	5283	1.6891
3088	5167	1.651
3088	5168	1.4732
3091	5346	1.7526
3091	5347	1.6256
3093	5291	1.8415000000000001
3093	5292	1.59385
3094	5226	1.6129
3094	5227	1.8034
3097	7265	1.6764000000000001
3097	7266	1.651
3110	5900	1.8796000000000002
3110	5901	1.6891
3111	6018	1.7018
3111	6019	1.64465
3118	6373	1.651
3118	6374	1.8542000000000003
3119	5820	1.778
3119	5821	1.6256
3122	7069	1.7018
3122	7070	1.778
3125	7003	1.6891
3125	7004	1.778
3127	6397	1.5748
3127	6399	1.7272
3132	6988	1.8288000000000002
3132	7451	1.7272
3134	7164	1.8288000000000002
3134	7165	1.7145000000000001
3135	7309	1.5621
3135	7310	1.8542000000000003
3139	6927	1.6002
3139	6928	1.7653
3141	7354	1.7526
3141	7355	1.5621
3143	7150	1.8161
3143	7151	1.6256
3156	7477	1.778
3156	7478	1.5748
3410	3515	1.524
3410	3516	1.7272
3411	3523	1.5748
3411	3526	1.8161
